[
  {
    "title":"Topology",
    "icon":"/assets/icons/dashboard.png",
    "disabled": false,
    "path":"/topology"
  },
  {
    "title":"Metrics",
    "icon":"/assets/icons/odometer.png",
    "path":"/images"
  },
  {
    "title":"API Explorer",
    "icon":"/assets/icons/api.png",
    "path":"/api"
  }
]
